// Jest Snapshot v1, https://goo.gl/fbAQLP

exports[`Prueba en PrimeraApp.js debe mostrar <PrimeraApp /> correctamente 1`] = `
<Fragment>
  <h1>
    hola mundo
  </h1>
  <h3>
    Soy un subtitulo
  </h3>
  <p>
    Mi primera aplicación
  </p>
</Fragment>
`;
